<g id="figure_1">
  <g id="patch_1">
   <path d="M -0 248.518125 
L 380.482813 248.518125 
L 380.482813 0 
L -0 0 
z" style="fill:none;"></path>
  </g>
  <g id="axes_1">
   <g id="patch_2">
    <path d="M 38.482813 224.64 
L 373.282813 224.64 
L 373.282813 7.2 
L 38.482813 7.2 
z" style="fill:#ffffff;"></path>
   </g>
   <g id="matplotlib.axis_1">
    <g id="xtick_1">
     <g id="line2d_1">
      <defs>
       <path d="M 0 0 
L 0 3.5" id="mc6c5355fac" style="stroke:#000000;stroke-width:0.8;"></path>
      </defs>
      <g>
       
      </g>
     </g>
     <g id="text_1">
      
      <g transform="translate(45.749432 239.238437)scale(0.1 -0.1)">
       <defs>
        <path d="M 2034 4250 
Q 1547 4250 1301 3770 
Q 1056 3291 1056 2328 
Q 1056 1369 1301 889 
Q 1547 409 2034 409 
Q 2525 409 2770 889 
Q 3016 1369 3016 2328 
Q 3016 3291 2770 3770 
Q 2525 4250 2034 4250 
z
M 2034 4750 
Q 2819 4750 3233 4129 
Q 3647 3509 3647 2328 
Q 3647 1150 3233 529 
Q 2819 -91 2034 -91 
Q 1250 -91 836 529 
Q 422 1150 422 2328 
Q 422 3509 836 4129 
Q 1250 4750 2034 4750 
z" id="DejaVuSans-30" transform="scale(0.015625)"></path>
        <path d="M 684 794 
L 1344 794 
L 1344 0 
L 684 0 
L 684 794 
z" id="DejaVuSans-2e" transform="scale(0.015625)"></path>
       </defs>
       
       
       
      </g>
     </g>
    </g>
    <g id="xtick_2">
     <g id="line2d_2">
      <g>
       
      </g>
     </g>
     <g id="text_2">
      
      <g transform="translate(106.622159 239.238437)scale(0.1 -0.1)">
       <defs>
        <path d="M 1228 531 
L 3431 531 
L 3431 0 
L 469 0 
L 469 531 
Q 828 903 1448 1529 
Q 2069 2156 2228 2338 
Q 2531 2678 2651 2914 
Q 2772 3150 2772 3378 
Q 2772 3750 2511 3984 
Q 2250 4219 1831 4219 
Q 1534 4219 1204 4116 
Q 875 4013 500 3803 
L 500 4441 
Q 881 4594 1212 4672 
Q 1544 4750 1819 4750 
Q 2544 4750 2975 4387 
Q 3406 4025 3406 3419 
Q 3406 3131 3298 2873 
Q 3191 2616 2906 2266 
Q 2828 2175 2409 1742 
Q 1991 1309 1228 531 
z" id="DejaVuSans-32" transform="scale(0.015625)"></path>
       </defs>
       
       
       
      </g>
     </g>
    </g>
    <g id="xtick_3">
     <g id="line2d_3">
      <g>
       
      </g>
     </g>
     <g id="text_3">
      
      <g transform="translate(167.494886 239.238437)scale(0.1 -0.1)">
       <defs>
        <path d="M 2419 4116 
L 825 1625 
L 2419 1625 
L 2419 4116 
z
M 2253 4666 
L 3047 4666 
L 3047 1625 
L 3713 1625 
L 3713 1100 
L 3047 1100 
L 3047 0 
L 2419 0 
L 2419 1100 
L 313 1100 
L 313 1709 
L 2253 4666 
z" id="DejaVuSans-34" transform="scale(0.015625)"></path>
       </defs>
       
       
       
      </g>
     </g>
    </g>
    <g id="xtick_4">
     <g id="line2d_4">
      <g>
       
      </g>
     </g>
     <g id="text_4">
      
      <g transform="translate(228.367614 239.238437)scale(0.1 -0.1)">
       <defs>
        <path d="M 2113 2584 
Q 1688 2584 1439 2293 
Q 1191 2003 1191 1497 
Q 1191 994 1439 701 
Q 1688 409 2113 409 
Q 2538 409 2786 701 
Q 3034 994 3034 1497 
Q 3034 2003 2786 2293 
Q 2538 2584 2113 2584 
z
M 3366 4563 
L 3366 3988 
Q 3128 4100 2886 4159 
Q 2644 4219 2406 4219 
Q 1781 4219 1451 3797 
Q 1122 3375 1075 2522 
Q 1259 2794 1537 2939 
Q 1816 3084 2150 3084 
Q 2853 3084 3261 2657 
Q 3669 2231 3669 1497 
Q 3669 778 3244 343 
Q 2819 -91 2113 -91 
Q 1303 -91 875 529 
Q 447 1150 447 2328 
Q 447 3434 972 4092 
Q 1497 4750 2381 4750 
Q 2619 4750 2861 4703 
Q 3103 4656 3366 4563 
z" id="DejaVuSans-36" transform="scale(0.015625)"></path>
       </defs>
       
       
       
      </g>
     </g>
    </g>
    <g id="xtick_5">
     <g id="line2d_5">
      <g>
       
      </g>
     </g>
     <g id="text_5">
      
      <g transform="translate(289.240341 239.238437)scale(0.1 -0.1)">
       <defs>
        <path d="M 2034 2216 
Q 1584 2216 1326 1975 
Q 1069 1734 1069 1313 
Q 1069 891 1326 650 
Q 1584 409 2034 409 
Q 2484 409 2743 651 
Q 3003 894 3003 1313 
Q 3003 1734 2745 1975 
Q 2488 2216 2034 2216 
z
M 1403 2484 
Q 997 2584 770 2862 
Q 544 3141 544 3541 
Q 544 4100 942 4425 
Q 1341 4750 2034 4750 
Q 2731 4750 3128 4425 
Q 3525 4100 3525 3541 
Q 3525 3141 3298 2862 
Q 3072 2584 2669 2484 
Q 3125 2378 3379 2068 
Q 3634 1759 3634 1313 
Q 3634 634 3220 271 
Q 2806 -91 2034 -91 
Q 1263 -91 848 271 
Q 434 634 434 1313 
Q 434 1759 690 2068 
Q 947 2378 1403 2484 
z
M 1172 3481 
Q 1172 3119 1398 2916 
Q 1625 2713 2034 2713 
Q 2441 2713 2670 2916 
Q 2900 3119 2900 3481 
Q 2900 3844 2670 4047 
Q 2441 4250 2034 4250 
Q 1625 4250 1398 4047 
Q 1172 3844 1172 3481 
z" id="DejaVuSans-38" transform="scale(0.015625)"></path>
       </defs>
       
       
       
      </g>
     </g>
    </g>
    <g id="xtick_6">
     <g id="line2d_6">
      <g>
       
      </g>
     </g>
     <g id="text_6">
      
      <g transform="translate(350.113068 239.238437)scale(0.1 -0.1)">
       <defs>
        <path d="M 794 531 
L 1825 531 
L 1825 4091 
L 703 3866 
L 703 4441 
L 1819 4666 
L 2450 4666 
L 2450 531 
L 3481 531 
L 3481 0 
L 794 0 
L 794 531 
z" id="DejaVuSans-31" transform="scale(0.015625)"></path>
       </defs>
       
       
       
      </g>
     </g>
    </g>
   </g>
   <g id="matplotlib.axis_2">
    <g id="ytick_1">
     <g id="line2d_7">
      <defs>
       <path d="M 0 0 
L -3.5 0" id="m9d5ae6ce7a" style="stroke:#000000;stroke-width:0.8;"></path>
      </defs>
      <g>
       
      </g>
     </g>
     <g id="text_7">
      
      <g transform="translate(7.2 208.458421)scale(0.1 -0.1)">
       <defs>
        <path d="M 678 2272 
L 4684 2272 
L 4684 1741 
L 678 1741 
L 678 2272 
z" id="DejaVuSans-2212" transform="scale(0.015625)"></path>
       </defs>
       
       
       
       
      </g>
     </g>
    </g>
    <g id="ytick_2">
     <g id="line2d_8">
      <g>
       
      </g>
     </g>
     <g id="text_8">
      
      <g transform="translate(7.2 181.504704)scale(0.1 -0.1)">
       <defs>
        <path d="M 691 4666 
L 3169 4666 
L 3169 4134 
L 1269 4134 
L 1269 2991 
Q 1406 3038 1543 3061 
Q 1681 3084 1819 3084 
Q 2600 3084 3056 2656 
Q 3513 2228 3513 1497 
Q 3513 744 3044 326 
Q 2575 -91 1722 -91 
Q 1428 -91 1123 -41 
Q 819 9 494 109 
L 494 744 
Q 775 591 1075 516 
Q 1375 441 1709 441 
Q 2250 441 2565 725 
Q 2881 1009 2881 1497 
Q 2881 1984 2565 2268 
Q 2250 2553 1709 2553 
Q 1456 2553 1204 2497 
Q 953 2441 691 2322 
L 691 4666 
z" id="DejaVuSans-35" transform="scale(0.015625)"></path>
       </defs>
       
       
       
       
      </g>
     </g>
    </g>
    <g id="ytick_3">
     <g id="line2d_9">
      <g>
       
      </g>
     </g>
     <g id="text_9">
      
      <g transform="translate(7.2 154.550987)scale(0.1 -0.1)">
       
       
       
       
      </g>
     </g>
    </g>
    <g id="ytick_4">
     <g id="line2d_10">
      <g>
       
      </g>
     </g>
     <g id="text_10">
      
      <g transform="translate(7.2 127.59727)scale(0.1 -0.1)">
       
       
       
       
      </g>
     </g>
    </g>
    <g id="ytick_5">
     <g id="line2d_11">
      <g>
       
      </g>
     </g>
     <g id="text_11">
      
      <g transform="translate(15.579688 100.643553)scale(0.1 -0.1)">
       
       
       
      </g>
     </g>
    </g>
    <g id="ytick_6">
     <g id="line2d_12">
      <g>
       
      </g>
     </g>
     <g id="text_12">
      
      <g transform="translate(15.579688 73.689836)scale(0.1 -0.1)">
       
       
       
      </g>
     </g>
    </g>
    <g id="ytick_7">
     <g id="line2d_13">
      <g>
       
      </g>
     </g>
     <g id="text_13">
      
      <g transform="translate(15.579688 46.736119)scale(0.1 -0.1)">
       
       
       
      </g>
     </g>
    </g>
    <g id="ytick_8">
     <g id="line2d_14">
      <g>
       
      </g>
     </g>
     <g id="text_14">
      
      <g transform="translate(15.579688 19.782402)scale(0.1 -0.1)">
       
       
       
      </g>
     </g>
    </g>
   </g>
   <g id="line2d_15">
    <path clip-path="url(#pd7671ea6e6)" d="M 53.700994 143.920457 
L 59.912497 39.248893 
L 66.124 143.068956 
L 72.335503 129.337625 
L 78.547005 48.849288 
L 84.758508 41.76979 
L 90.970011 101.535159 
L 97.181514 139.57638 
L 103.393017 126.868868 
L 109.604519 79.155231 
L 115.816022 67.945451 
L 122.027525 90.695239 
L 128.239028 86.218667 
L 134.45053 178.517742 
L 140.662033 81.733295 
L 146.873536 149.07537 
L 153.085039 55.368866 
L 159.296542 27.50619 
L 165.508044 144.585689 
L 171.719547 17.083636 
L 177.93105 110.225271 
L 184.142553 85.976902 
L 190.354056 75.886405 
L 196.565558 78.968954 
L 202.777061 27.56202 
L 208.988564 52.788583 
L 215.200067 17.435972 
L 221.411569 69.023439 
L 227.623072 156.302188 
L 233.834575 59.620358 
L 240.046078 93.24994 
L 246.257581 28.173398 
L 252.469083 151.386195 
L 258.680586 214.756364 
L 264.892089 184.495474 
L 271.103592 66.767235 
L 277.315095 111.538664 
L 283.526597 88.406254 
L 289.7381 68.093264 
L 295.949603 87.706803 
L 302.161106 22.204371 
L 308.372608 26.644521 
L 314.584111 87.238328 
L 320.795614 45.040642 
L 327.007117 61.016007 
L 333.21862 114.098696 
L 339.430122 192.113273 
L 345.641625 45.697455 
L 351.853128 125.05277 
L 358.064631 122.838107" style="fill:none;stroke:#1f77b4;stroke-linecap:square;stroke-width:1.5;"></path>
    <defs>
     <path d="M 0 3 
C 0.795609 3 1.55874 2.683901 2.12132 2.12132 
C 2.683901 1.55874 3 0.795609 3 0 
C 3 -0.795609 2.683901 -1.55874 2.12132 -2.12132 
C 1.55874 -2.683901 0.795609 -3 0 -3 
C -0.795609 -3 -1.55874 -2.683901 -2.12132 -2.12132 
C -2.683901 -1.55874 -3 -0.795609 -3 0 
C -3 0.795609 -2.683901 1.55874 -2.12132 2.12132 
C -1.55874 2.683901 -0.795609 3 0 3 
z" id="m975e5f8042" style="stroke:#1f77b4;"></path>
    </defs>
    <g clip-path="url(#pd7671ea6e6)">
     
     
     
     
     
     
     
     
     
     
     
     
     
     
     
     
     
     
     
     
     
     
     
     
     
     
     
     
     
     
     
     
     
     
     
     
     
     
     
     
     
     
     
     
     
     
     
     
     
     
    </g>
   </g>
   <g id="patch_3">
    <path d="M 38.482813 224.64 
L 38.482813 7.2" style="fill:none;stroke:#000000;stroke-linecap:square;stroke-linejoin:miter;stroke-width:0.8;"></path>
   </g>
   <g id="patch_4">
    <path d="M 373.282813 224.64 
L 373.282813 7.2" style="fill:none;stroke:#000000;stroke-linecap:square;stroke-linejoin:miter;stroke-width:0.8;"></path>
   </g>
   <g id="patch_5">
    <path d="M 38.482813 224.64 
L 373.282813 224.64" style="fill:none;stroke:#000000;stroke-linecap:square;stroke-linejoin:miter;stroke-width:0.8;"></path>
   </g>
   <g id="patch_6">
    <path d="M 38.482813 7.2 
L 373.282813 7.2" style="fill:none;stroke:#000000;stroke-linecap:square;stroke-linejoin:miter;stroke-width:0.8;"></path>
   </g>
  </g>
 </g>
